{
  "name": "April",
  "abbreviation": "Apr",
    "talks": [
      {
        "presenter": {
          "name": ""
        },
        "presentation": {
          "title": "SecDSM 101 - April 2018",
          "links": [
            {
              "url": "https://www.youtube.com/watch?v=_tmi8Dh_4wI",
              "type": "youtube"
          }
          ]
        }
    },
      {
        "presenter": {
          "name": "David Little and Nick Starke"
        },
        "presentation": {
          "title": "Tool Talk - GnuPG (GPG)",
          "links": [
            {
              "url": "https://www.youtube.com/watch?v=KTBWT6YQJzg",
              "type": "youtube"
          }
          ]
        }
    },
      {
        "presenter": {
          "name": "Sherri Davidoff"
        },
        "presentation": {
          "title": "Cybercrime 2018: from Cryptojacking to Cyber Extortion",
          "links": [
            {
              "url": "https://www.youtube.com/watch?v=1x885mEBhwE",
              "type": "youtube"
          }
          ]
        }
    }
    ]
}