{
	"name": "November",
	"abbreviation": "November",
	"talks": [{
			"presenter": {
				"name": ""
			},
			"presentation": {
				"title": "SecDSM 101 - November 2018",
				"links": [{
					"url": "https://www.youtube.com/watch?v=eWMq1X_D0Kk",
					"type": "youtube"
				}]
			}
		},
		{
			"presenter": {
				"name": "Jay Urban"
			},
			"presentation": {
				"title": "Stop Web Application Version Disclosure in .NET on IIS",
				"description": "IIS and .NET disclose a lot of version number data by default that can be exploited by attackers to wreak havoc upon your web site using known vulnerabilities. Make hackers work harder to penetrate your web applications by utilizing these simple tips on stopping version information disclosure.",
				"links": [{
					"url": "https://www.youtube.com/watch?v=sgNhrD6jSsw",
					"type": "youtube"
				}]
			}
		}]
}
