{
  "name": "January",
  "abbreviation": "Jan",
    "talks": [
      {
        "presenter": {
          "name": "Brandon Murphy"
        },
        "presentation": {
          "title": "Using Huginn for Situational Awareness - January 2018",
          "links": [
            {
              "url": "https://www.youtube.com/watch?v=o15-cSR4Vrg&t=1820s",
              "type": "youtube"
          }
          ]
        }
    },
      {
        "presenter": {
          "name": "David Liddle"
        },
        "presentation": {
          "title": "CCNA Basic Router ans Switch Security - January 2018",
          "links": [
            {
              "url": "https://www.youtube.com/watch?v=UJ7283KCta0&t=59s",
              "type": "youtube"
          }
          ]
        }
    },
    {
        "presenter": {
          "name": "Antoinette Stevens"
        },
        "presentation": {
          "title": "Mini CTF Walkthrough - January 2018",
          "links": [
            {
              "url": "https://www.youtube.com/watch?v=eDyqI4VuEZ4&t=3s",
              "type": "youtube"
          }
          ]
        }
    }
    ]
}